<svg width="16" height="16" viewBox="0 0 16 16" fill="none" xmlns="http://www.w3.org/2000/svg">
<path d="M8 16C12.3765 16 16 12.3686 16 8C16 3.62353 12.3686 0 7.99216 0C3.62353 0 0 3.62353 0 8C0 12.3686 3.63137 16 8 16ZM8 14.6667C4.29804 14.6667 1.34118 11.702 1.34118 8C1.34118 4.29804 4.2902 1.33333 7.99216 1.33333C11.6941 1.33333 14.6588 4.29804 14.6667 8C14.6745 11.702 11.702 14.6667 8 14.6667ZM7.13725 11.7255C7.39608 11.7255 7.61569 11.6 7.77255 11.3569L11.3569 5.71765C11.4431 5.56863 11.5451 5.38824 11.5451 5.21569C11.5451 4.87059 11.2314 4.64314 10.902 4.64314C10.7059 4.64314 10.5098 4.76078 10.3608 4.99608L7.10588 10.2118L5.56078 8.21961C5.37255 7.96863 5.2 7.89804 4.98039 7.89804C4.64314 7.89804 4.37647 8.17255 4.37647 8.52549C4.37647 8.6902 4.44706 8.86275 4.55686 9.01176L6.47059 11.3569C6.66667 11.6157 6.87843 11.7255 7.13725 11.7255Z" fill="#303030"/>
</svg>
