<svg width="60" height="60" viewBox="0 0 60 60" fill="none" xmlns="http://www.w3.org/2000/svg">
<circle cx="30" cy="30" r="30" fill="#06B681" fill-opacity="0.1"/>
<path d="M27.6302 40C28.1334 40 28.5313 39.7776 28.8122 39.3446L39.8713 21.931C40.0819 21.5916 40.1638 21.3341 40.1638 21.065C40.1638 20.4213 39.7425 20 39.0989 20C38.6308 20 38.3733 20.1521 38.0925 20.5968L27.5834 37.3435L22.1299 30.2048C21.8373 29.7952 21.5448 29.6314 21.1235 29.6314C20.4564 29.6314 20 30.0878 20 30.7314C20 31.0006 20.117 31.3049 20.3394 31.5857L26.4131 39.3212C26.7642 39.7776 27.127 40 27.6302 40Z" fill="#06B681"/>
</svg>
